{"preference":null,"pagination":{"total":1834,"limit":20,"offset":0,"total_pages":92,"current_page":1},"data":[{"_score":15307.405,"artist_title":"Vincent van Gogh","image_id":"25c31d8d-21a4-9ea1-1d73-6a2eca4dda7e","title":"The Bedroom"},{"_score":2551.2341,"artist_title":"Gustave Caillebotte","image_id":"f8fd76e9-c396-5678-36ed-6a348c904d27","title":"Paris Street; Rainy Day"},{"_score":2186.7722,"artist_title":"Georges Seurat","image_id":"2d484387-2509-5e8e-2c43-22f9981972eb","title":"A Sunday on La Grande Jatte \u2014 1884"},{"_score":322.26117,"artist_title":"Domenico Theotok\u00f3poulos, called El Greco","image_id":"47fd1564-93f5-f30b-7786-013421133b4a","title":"The Assumption of the Virgin"},{"_score":306.1481,"artist_title":"Claude Monet","image_id":"a38e2828-ec6f-ece1-a30f-70243449197b","title":"Stacks of Wheat (End of Summer)"},{"_score":80.91639,"artist_title":"Claude Monet","image_id":"3c27b499-af56-f0d5-93b5-a7f2f1ad5813","title":"Water Lilies"},{"_score":78.98099,"artist_title":"Pierre-Auguste Renoir","image_id":"3a608f55-d76e-fa96-d0b1-0789fbc48f1e","title":"Two Sisters (On the Terrace)"},{"_score":78.22133,"artist_title":"Vincent van Gogh","image_id":"26d3cea8-44c0-bfbd-a91a-19a007517152","title":"Self-Portrait"},{"_score":78.04839,"artist_title":"Mary Cassatt","image_id":"5de963b1-55e2-b349-6cd5-85f9bd2687ec","title":"The Child's Bath"},{"_score":75.81981,"artist_title":"Henri de Toulouse-Lautrec","image_id":"defb4004-b500-218d-3d9b-9a02423f097d","title":"At the Moulin Rouge"},{"_score":74.9693,"artist_title":"Claude Monet","image_id":"0f1cc0e0-e42e-be16-3f71-2022da38cb93","title":"Arrival of the Normandy Train, Gare Saint-Lazare"},{"_score":74.41143,"artist_title":"Paul Cezanne","image_id":"52ac8996-3460-cf71-cb42-5c4d0aa29b74","title":"The Basket of Apples"},{"_score":73.31252,"artist_title":"Berthe Morisot","image_id":"78c80988-6524-cec7-c661-a4c0a706d06f","title":"Woman at Her Toilette"},{"_score":72.9951,"artist_title":"Bernat Martorell","image_id":"8a0e4ac9-43ea-bc3e-884b-ee27f8a10501","title":"Saint George and the Dragon"},{"_score":72.60226,"artist_title":"Thomas Cole","image_id":"18092196-50ae-3ff1-9205-1b3110e966c3","title":"Distant View of Niagara Falls"},{"_score":71.52809,"artist_title":"Claude Monet","image_id":"95be2572-b53d-8e7b-abc9-10eb48d4fa5d","title":"The Beach at Sainte-Adresse"},{"_score":70.7555,"artist_title":"Francisco de Zurbar\u00e1n","image_id":"c8ee825f-bc8c-c76b-1f05-5d692d9a6b47","title":"The Crucifixion"},{"_score":70.67888,"artist_title":"Vasily Kandinsky","image_id":"9e00e226-9264-cda0-2893-685e0ca5b285","title":"Improvisation No. 30 (Cannons)"},{"_score":70.637665,"artist_title":"Winslow Homer","image_id":"5dca7347-c6dc-24dd-d073-d705b9cdc575","title":"The Herring Net"},{"_score":70.350006,"artist_title":"Edvard Munch","image_id":"d7df2633-3b40-f570-c906-211503a37cde","title":"The Girl by the Window"}],"info":{"license_text":"The `description` field in this response is licensed under a Creative Commons Attribution 4.0 Generic License (CC-By) and the Terms and Conditions of artic.edu. All other data in this response is licensed under a Creative Commons Zero (CC0) 1.0 designation and the Terms and Conditions of artic.edu.","license_links":["https:\/\/creativecommons.org\/publicdomain\/zero\/1.0\/","https:\/\/www.artic.edu\/terms"],"version":"1.10"},"config":{"iiif_url":"https:\/\/www.artic.edu\/iiif\/2","website_url":"http:\/\/www.artic.edu"}}
