{"preference":null,"pagination":{"total":1834,"limit":10,"offset":0,"total_pages":184,"current_page":1},"data":[{"_score":15385.514,"artist_title":"Vincent van Gogh","image_id":"jf1","title":"The Bedroom"},{"_score":2564.2522,"artist_title":"Gustave Caillebotte","image_id":"jf2","title":"Paris Street; Rainy Day"},{"_score":2197.9304,"artist_title":"Georges Seurat","image_id":"jf3","title":"A Sunday on La Grande Jatte \u2014 1884"},{"_score":323.90555,"artist_title":"Domenico Theotok\u00f3poulos, called El Greco","image_id":"jf4","title":"The Assumption of the Virgin"},{"_score":307.71027,"artist_title":"Claude Monet","image_id":"jf5","title":"Stacks of Wheat (End of Summer)"},{"_score":81.32928,"artist_title":"Claude Monet","image_id":"jf6","title":"Water Lilies"},{"_score":79.384,"artist_title":"Pierre-Auguste Renoir","image_id":"jf7","title":"Two Sisters (On the Terrace)"},{"_score":78.62046,"artist_title":"Vincent van Gogh","image_id":"jf8","title":"Self-Portrait"},{"_score":78.44664,"artist_title":"Mary Cassatt","image_id":"jf9","title":"The Child's Bath"},{"_score":76.20669,"artist_title":"Henri de Toulouse-Lautrec","image_id":"jf10","title":"At the Moulin Rouge"}],"info":{"license_text":"The `description` field in this response is licensed under a Creative Commons Attribution 4.0 Generic License (CC-By) and the Terms and Conditions of artic.edu. All other data in this response is licensed under a Creative Commons Zero (CC0) 1.0 designation and the Terms and Conditions of exotopia.org.","license_links":["https:\/\/creativecommons.org\/publicdomain\/zero\/1.0\/","https:\/\/www.scdhub.org\/terms"],"version":"1.10"},"config":{"iiif_url":"https:\/\/www.exotopia.org\/gallery\/2","website_url":"http:\/\/www.exotopia.org"}}
